…
### Pendiente de el último 10% de la curva de accumulación de especies

    grid_iNatUY_GIS %>% st_drop_geometry() %>% 
      mutate(Species=str_split(spsList, ';')) %>% 
      unnest(Species) %>% 
      group_by(spsList) %>% mutate(Sample = row_number()) %>% 
      ungroup() %>% 
      mutate(Sample=ifelse(is.na(Species), 0 , Sample)) %>% 
      select(grid_ID, Sample, Species)

    ## # A tibble: 17,082 x 3
    ##    grid_ID Sample Species                      
    ##      <int>  <int> <chr>                        
    ##  1       1      1 Artemisia vulgaris           
    ##  2       1      2 Agelaioides badius           
    ##  3       1      3 Ortilia ithra                
    ##  4       1      4 Lepidocolaptes angustirostris
    ##  5       1      5 Astylus quadrilineatus       
    ##  6       1      6 Ortilia velica               
    ##  7       1      7 Ardea cocoi                  
    ##  8       1      8 Ortilia velica               
    ##  9       1      9 Tegosa claudina              
    ## 10       1     10 Turdus amaurochalinus        
    ## # … with 17,072 more rows
…
